{
    "config-version" : "LHO ER13 DQ configuration $Id: H-DQmod-ER13.json 7729 2016-09-09 23:09:32Z john.zweizig@LIGO.ORG $",
    "stride" : 1.0,
    "flag_step" : 0.0625,
    "write_path" : "/online/LHO_DMTDQ",
    "compression" : "zero-suppress-or-gzip",
    "filters" : [
	{"name" : "multiply",
	 "type" : "math_2op",
         "rate" : 16384,
         "opcode" : "*"
        }
    ],
    "copy_channels" : [
        "1/H1:GDS-CALIB_F_S_TEST",
        "1/H1:GDS-CALIB_F_S_NOGATE_TEST",
        "1/H1:GDS-CALIB_SRC_Q_INVERSE_TEST",
        "1/H1:GDS-CALIB_SRC_Q_INVERSE_NOGATE_TEST",
        "1/H1:GDS-CALIB_F_CC_TEST",
        "1/H1:GDS-CALIB_F_CC_NOGATE_TEST",
        "1/H1:GDS-CALIB_KAPPA_C_TEST",
        "1/H1:GDS-CALIB_KAPPA_C_NOGATE_TEST",
        "1/H1:GDS-CALIB_KAPPA_PUM_IMAGINARY_TEST",
        "1/H1:GDS-CALIB_KAPPA_PUM_IMAGINARY_NOGATE_TEST",
        "1/H1:GDS-CALIB_KAPPA_PUM_REAL_TEST",
        "1/H1:GDS-CALIB_KAPPA_PUM_REAL_NOGATE_TEST",
        "1/H1:GDS-CALIB_KAPPA_UIM_IMAGINARY_TEST",
        "1/H1:GDS-CALIB_KAPPA_UIM_IMAGINARY_NOGATE_TEST",
        "1/H1:GDS-CALIB_KAPPA_UIM_REAL_TEST",
        "1/H1:GDS-CALIB_KAPPA_UIM_REAL_NOGATE_TEST",
        "1/H1:GDS-CALIB_KAPPA_TST_IMAGINARY_TEST",
        "1/H1:GDS-CALIB_KAPPA_TST_IMAGINARY_NOGATE_TEST",
        "1/H1:GDS-CALIB_KAPPA_TST_REAL_TEST",
        "1/H1:GDS-CALIB_KAPPA_TST_REAL_NOGATE_TEST",
        "1/H1:GDS-CALIB_STATE_VECTOR_TEST",
        "1/H1:GDS-CALIB_STRAIN_TEST",
        "1/H1:GDS-CALIB_STRAIN_CLEAN_TEST",
        "0/H1:DMT-DQ_VECTOR",
        "0/H1:DMT-DQ_VECTOR_GATED"
    ],
    "processed-channels" : [
        {"name"    : "H1:GDS-GATED_STRAIN_TEST",
         "filter"  : "multiply",
         "x-input" : "1/H1:GDS-CALIB_STRAIN_TEST",
         "y-input" : "0/H1:GDS-STRAIN_GATE"
        }
     ] 
}
