{
    "config-version" : "LHO O3 DQ configuration $Id$",
    "stride" : 1.0,
    "flag_step" : 0.0625,
    "write_path" : "/online/LHO_DMTDQ",
    "compression" : "zero-suppress-or-gzip",
    "timeout" : 12,
    "input_flags" : [false, false, true],
    "filters" : [
        {"name" : "multiply",
         "type" : "math_2op",
         "rate" : 16384,
         "opcode" : "*"
        },
	{"name"  : "empty_128Hz",
	 "type"  : "empty_flag",
	 "rate"  : 128,
	 "dtype" : "real_8"
	}
    ],
    "copy_channels" : [
        "1/H1:GDS-CALIB_F_S_SQUARED",
	"1/H1:GDS-CALIB_F_S_SQUARED_NOGATE",
        "1/H1:GDS-CALIB_SRC_Q_INVERSE",
	"1/H1:GDS-CALIB_SRC_Q_INVERSE_NOGATE",
        "1/H1:GDS-CALIB_F_CC",
	"1/H1:GDS-CALIB_F_CC_NOGATE",
        "1/H1:GDS-CALIB_KAPPA_C",
	"1/H1:GDS-CALIB_KAPPA_C_NOGATE",
        "1/H1:GDS-CALIB_KAPPA_PUM_IMAGINARY",
	"1/H1:GDS-CALIB_KAPPA_PUM_IMAGINARY_NOGATE",
        "1/H1:GDS-CALIB_KAPPA_PUM_REAL",
	"1/H1:GDS-CALIB_KAPPA_PUM_REAL_NOGATE",
        "1/H1:GDS-CALIB_KAPPA_UIM_IMAGINARY",
	"1/H1:GDS-CALIB_KAPPA_UIM_IMAGINARY_NOGATE",
        "1/H1:GDS-CALIB_KAPPA_UIM_REAL",
	"1/H1:GDS-CALIB_KAPPA_UIM_REAL_NOGATE",
        "1/H1:GDS-CALIB_KAPPA_TST_IMAGINARY",
	"1/H1:GDS-CALIB_KAPPA_TST_IMAGINARY_NOGATE",
        "1/H1:GDS-CALIB_KAPPA_TST_REAL",
	"1/H1:GDS-CALIB_KAPPA_TST_REAL_NOGATE",
        "1/H1:GDS-CALIB_STATE_VECTOR",
        "1/H1:GDS-CALIB_STRAIN",
        "1/H1:GDS-CALIB_STRAIN_CLEAN",
        "1/H1:GDS-CALIB_STRAIN_NOLINES",
	"0/H1:DMT-DQ_VECTOR",
	"0/H1:DMT-DQ_VECTOR_GATED"
    ],
    "processed-channels" : [
        {"name"    : "H1:GDS-GATED_STRAIN",
         "filter"  : "multiply",
         "x-input" : "1/H1:GDS-CALIB_STRAIN_NOLINES",
         "y-input" : "0/H1:GDS-STRAIN_GATE"
        },
	{"name"    : "H1:IDQ-OK_OVL_10_2048",
	 "filter"  : "empty_128Hz",
	 "x-input" : "2/H1:IDQ-OK_OVL_10_2048"
	},
	{"name"    : "H1:IDQ-RANK_OVL_10_2048",
	 "filter"  : "empty_128Hz",
	 "x-input" : "2/H1:IDQ-RANK_OVL_10_2048"
	},
	{"name"    : "H1:IDQ-FAP_OVL_10_2048",
	 "filter"  : "empty_128Hz",
	 "x-input" : "2/H1:IDQ-FAP_OVL_10_2048"
	},
	{"name"    : "H1:IDQ-EFF_OVL_10_2048",
	 "filter"  : "empty_128Hz",
	 "x-input" : "2/H1:IDQ-EFF_OVL_10_2048"
	},
	{"name"    : "H1:IDQ-LOGLIKE_OVL_10_2048",
	 "filter"  : "empty_128Hz",
	 "x-input" : "2/H1:IDQ-LOGLIKE_OVL_10_2048"
	},
	{"name"    : "H1:IDQ-PGLITCH_OVL_10_2048",
	 "filter"  : "empty_128Hz",
	 "x-input" : "2/H1:IDQ-PGLITCH_OVL_10_2048"
	}
     ] 
}
