{
    "config-version" : "LHO O2 DQ configuration $Id: H-DQmod-O2.json 7729 2016-09-09 23:09:32Z john.zweizig@LIGO.ORG $",
    "stride" : 4.0,
    "flag_step" : 0.0625,
    "write_path" : "/online/LHO_DMTDQ",
    "compression" : "zero-suppress-or-gzip",
    "dq_flags" : [
	{
	    "name" : "H1:DMT-ETMY_ESD_DAC_OVERFLOW",
	    "channel" : "H1:DMT-DQ_VECTOR",
	    "bit" :  2,
	    "class" : "DQ_OvflCount",
	    "library" : "/usr/lib64/libdqplugins.so",
            "invert" : true,
	    "inputs" : [
                "0/H1:FEC-98_DAC_OVERFLOW_ACC_3_1",
                "0/H1:FEC-98_DAC_OVERFLOW_ACC_3_2",
                "0/H1:FEC-98_DAC_OVERFLOW_ACC_3_3",
                "0/H1:FEC-98_DAC_OVERFLOW_ACC_3_4"
	    ],
	    "parameters" : {
		"print" : true
	    }
	},
        {
            "name" : "H1:DMT-OMC_DCPD_ADC_OVERFLOW",
            "channel" : "H1:DMT-DQ_VECTOR",
            "bit" :  1,
            "class" : "DQ_OvflCount",
            "library" : "/usr/lib64/libdqplugins.so",
            "invert" : true,
            "inputs" : [
                "0/H1:FEC-8_ADC_OVERFLOW_ACC_0_12",
                "0/H1:FEC-8_ADC_OVERFLOW_ACC_0_13"
            ],
            "parameters" : {
                "print" : true
            }
        }
    ],
    "copy_channels" : [
        "1/H1:GDS-CALIB_F_S_TEST",
        "1/H1:GDS-CALIB_F_S_NOGATE_TEST",
        "1/H1:GDS-CALIB_SRC_Q_INVERSE_TEST",
        "1/H1:GDS-CALIB_SRC_Q_INVERSE_NOGATE_TEST",
        "1/H1:GDS-CALIB_F_CC_TEST",
        "1/H1:GDS-CALIB_F_CC_NOGATE_TEST",
        "1/H1:GDS-CALIB_KAPPA_C_TEST",
        "1/H1:GDS-CALIB_KAPPA_C_NOGATE_TEST",
        "1/H1:GDS-CALIB_KAPPA_PU_IMAGINARY_TEST",
        "1/H1:GDS-CALIB_KAPPA_PU_IMAGINARY_NOGATE_TEST",
        "1/H1:GDS-CALIB_KAPPA_PU_REAL_TEST",
        "1/H1:GDS-CALIB_KAPPA_PU_REAL_NOGATE_TEST",
        "1/H1:GDS-CALIB_KAPPA_TST_IMAGINARY_TEST",
        "1/H1:GDS-CALIB_KAPPA_TST_IMAGINARY_NOGATE_TEST",
        "1/H1:GDS-CALIB_KAPPA_TST_REAL_TEST",
        "1/H1:GDS-CALIB_KAPPA_TST_REAL_NOGATE_TEST",
        "1/H1:GDS-CALIB_STATE_VECTOR_TEST",
        "1/H1:GDS-CALIB_STRAIN_TEST",
        "1/H1:ODC-MASTER_CHANNEL_OUT_DQ"
    ]
}
