{
    "config-version" : "LLO ER10 DQ configuration $Id$",
    "stride" : 4.0,
    "flag_step" : 0.0625,
    "write_path" : "/online/LLO_DMTDQ",
    "compression" : "zero-suppress-or-gzip",
    "dq_flags" : [
	{
	    "name" : "L1:DMT-ETMY_ESD_DAC_OVERFLOW",
	    "channel" : "L1:DMT-DQ_VECTOR",
	    "bit" :  2,
	    "class" : "DQ_OvflCount",
	    "library" : "/usr/lib64/libdqplugins.so",
            "invert" : true,
	    "inputs" : [
                "0/L1:FEC-98_DAC_OVERFLOW_ACC_3_1",
                "0/L1:FEC-98_DAC_OVERFLOW_ACC_3_2",
                "0/L1:FEC-98_DAC_OVERFLOW_ACC_3_3",
                "0/L1:FEC-98_DAC_OVERFLOW_ACC_3_4"
	    ],
	    "parameters" : {
		"print" : true
	    }
	},
        {
            "name" : "L1:DMT-OMC_DCPD_ADC_OVERFLOW",
            "channel" : "L1:DMT-DQ_VECTOR",
            "bit" :  1,
            "class" : "DQ_OvflCount",
            "library" : "/usr/lib64/libdqplugins.so",
            "invert" : true,
            "inputs" : [
                "0/L1:FEC-8_ADC_OVERFLOW_ACC_0_12",
                "0/L1:FEC-8_ADC_OVERFLOW_ACC_0_13"
            ],
            "parameters" : {
                "print" : true
            }
        }
    ],
    "copy_channels" : [
        "1/L1:GDS-CALIB_F_CC",
        "1/L1:GDS-CALIB_KAPPA_A_IMAGINARY",
        "1/L1:GDS-CALIB_KAPPA_A_REAL",
        "1/L1:GDS-CALIB_KAPPA_C",
        "1/L1:GDS-CALIB_KAPPA_PU_IMAGINARY",
        "1/L1:GDS-CALIB_KAPPA_PU_REAL",
        "1/L1:GDS-CALIB_KAPPA_TST_IMAGINARY",
        "1/L1:GDS-CALIB_KAPPA_TST_REAL",
        "1/L1:GDS-CALIB_STATE_VECTOR",
        "1/L1:GDS-CALIB_STRAIN",
        "1/L1:ODC-MASTER_CHANNEL_OUT_DQ"
    ]
}
