{
    "config-version" : "LLO O2 DQ configuration $Id: L-DQmod-O2.json 7729 2016-09-09 23:09:32Z john.zweizig@LIGO.ORG $",
    "stride" : 1.0,
    "flag_step" : 0.0625,
    "write_path" : "/online/LLO_DMTDQ",
    "compression" : "zero-suppress-or-gzip",
    "filters" : [
        {"name" : "multiply",
         "type" : "math_2op",
         "rate" : 16384,
         "opcode" : "*"
        }
    ],
    "copy_channels" : [
        "1/L1:GDS-CALIB_F_CC_TEST",
	"1/L1:GDS-CALIB_F_CC_NOGATE_TEST",
        "1/L1:GDS-CALIB_KAPPA_C_TEST",
	"1/L1:GDS-CALIB_KAPPA_C_NOGATE_TEST",
        "1/L1:GDS-CALIB_KAPPA_PU_IMAGINARY_TEST",
	"1/L1:GDS-CALIB_KAPPA_PU_IMAGINARY_NOGATE_TEST",
        "1/L1:GDS-CALIB_KAPPA_PU_REAL_TEST",
	"1/L1:GDS-CALIB_KAPPA_PU_REAL_NOGATE_TEST",
        "1/L1:GDS-CALIB_KAPPA_TST_IMAGINARY_TEST",
	"1/L1:GDS-CALIB_KAPPA_TST_IMAGINARY_NOGATE_TEST",
        "1/L1:GDS-CALIB_KAPPA_TST_REAL_TEST",
	"1/L1:GDS-CALIB_KAPPA_TST_REAL_NOGATE_TEST",
        "1/L1:GDS-CALIB_STATE_VECTOR_TEST",
        "1/L1:GDS-CALIB_STRAIN_TEST",
	"0/L1:DMT-DQ_VECTOR",
	"0/L1:DMT-DQ_VECTOR_GATED"
    ],
    "processed-channels" : [
        {"name"    : "L1:GDS-GATED_STRAIN",
         "filter"  : "multiply",
         "x-input" : "1/L1:GDS-CALIB_STRAIN_TEST",
         "y-input" : "0/L1:GDS-STRAIN_GATE"
        }
     ] 
}
