
{
    "nagios_shib_scraper_ver": 0.1,
        "author": {
                "name": "JohnZ",
                "email": "john.zweizig@ligo.org"
        },
        "created_gps": GPS_TIME,
        "status_intervals":
        [
            {
                "num_status": 0,
                "txt_status": "OK: See <a href='SPI_PAGE' target='_top'>full link</a>\nMaintainer: JohnZ",
                "start_sec": 0
            },
             {
             "num_status": 3,
             "txt_status": "UNKNOWN: Have not heard anything for 10 minutes.\nSee <a href='SPI_PAGE' target='_top'>full link</a>\nMaintainer: JohnZ",
             "start_sec": 600
             }
        ]
}
