#
#   LLO generic WatchDawg list.
#
#   Modified: 4/25/2006 - check space on /dmt (makes sure it's mounted)
#
check-space /gds
check-oldata
check-data-loss LLO_Online
check-fpu-traps
check-stats mem_free<100000
