1  19

C 1	L1:LSC-AS_Q		16384	
      256	0.5	0.5	32
   
M  L1:DMT-BICO_LSC-AS_Q_ALL         0   0 0
M  L1:DMT-BICO_LSC-AS_Q_120_2_2   120   2 2
M  L1:DMT-BICO_LSC-AS_Q_120_10_2  120  10 2
M  L1:DMT-BICO_LSC-AS_Q_120_38_2  120  38 2
M  L1:DMT-BICO_LSC-AS_Q_120_60_2  120  60 2
M  L1:DMT-BICO_LSC-AS_Q_120_180_2 120 180 2
M  L1:DMT-BICO_LSC-AS_Q_120_240_2 120 240 2
M  L1:DMT-BICO_LSC-AS_Q_180_2_2   180   2 2
M  L1:DMT-BICO_LSC-AS_Q_180_10_2  180  10 2
M  L1:DMT-BICO_LSC-AS_Q_180_38_2  180  38 2
M  L1:DMT-BICO_LSC-AS_Q_180_60_2  180  60 2
M  L1:DMT-BICO_LSC-AS_Q_180_180_2 180 180 2
M  L1:DMT-BICO_LSC-AS_Q_180_240_2 180 240 2
M  L1:DMT-BICO_LSC-AS_Q_240_2_2   240   2 2
M  L1:DMT-BICO_LSC-AS_Q_240_10_2  240  10 2
M  L1:DMT-BICO_LSC-AS_Q_240_38_2  240  38 2
M  L1:DMT-BICO_LSC-AS_Q_240_60_2  240  60 2
M  L1:DMT-BICO_LSC-AS_Q_240_180_2 240 180 2
M  L1:DMT-BICO_LSC-AS_Q_240_240_2 240 240 2



