4000.000000 0.000195 0.000200 2.930726 0.100000 15
3661.925293 0.000254 0.000200 3.638545 0.100000 15
3352.424316 0.000306 0.000200 4.211339 0.100000 15
3069.082031 0.000511 0.000200 5.224804 0.100000 15
2809.687256 0.000708 0.000200 5.780341 0.100000 15
2572.216309 0.000827 0.000200 6.161434 0.100000 15
2354.816162 0.000973 0.000200 6.669086 0.100000 15
2155.790283 0.001087 0.000200 7.084511 0.100000 15
1973.585693 0.001296 0.000200 7.691730 0.100000 15
1806.780884 0.001788 0.000200 7.827551 0.100000 15
1654.074219 0.002197 0.000200 8.142506 0.100000 15
1514.274048 0.002722 0.000200 8.364475 0.100000 15
1386.289673 0.003203 0.000200 8.639727 0.100000 15
1269.122314 0.004022 0.000200 8.836142 0.100000 15
1161.857788 0.004948 0.000200 9.033313 0.100000 15
1063.659180 0.006334 0.000200 9.171712 0.100000 15
973.760132 0.008364 0.000200 9.273669 0.100000 15
891.459229 0.010593 0.000200 9.404968 0.100000 15
816.114319 0.014918 0.000200 9.503210 0.100000 15
747.137451 0.019545 0.000200 9.701172 0.100000 15
683.990356 0.014223 0.000200 8.735926 0.100000 15
626.180420 0.038243 0.010000 9.699159 0.050000 15
573.256531 0.053924 0.010000 9.878993 0.050000 15
524.805664 0.074669 0.010000 10.040102 0.050000 15
480.449768 0.096274 0.010000 10.189052 0.050000 15
439.842804 0.141141 0.010000 10.324653 0.050000 15
402.667877 0.187035 0.010000 10.470057 0.050000 15
368.634949 0.251788 0.010000 10.612728 0.050000 15
337.478424 0.341811 0.010000 10.757401 0.050000 15
308.955200 0.443785 0.010000 10.898101 0.050000 15
282.842712 0.595519 0.010000 11.043454 0.050000 15
258.937225 0.774536 0.010000 11.183982 0.050000 15
237.052200 0.993336 0.010000 11.319647 0.050000 15
217.016876 1.370860 0.010000 11.498033 0.050000 15
198.674896 1.730953 0.010000 11.632091 0.050000 15
181.883163 2.365263 0.010000 11.838284 0.050000 15
166.510635 2.821011 0.010000 11.921973 0.050000 15
152.437393 3.957285 0.010000 12.213601 0.050000 15
139.553589 4.710495 0.010000 12.284665 0.050000 15
127.758705 6.440079 0.010000 12.658801 0.050000 15
116.960709 7.821727 0.010000 12.735445 0.050000 15
107.075348 9.999546 0.300000 13.093653 0.020000 15
98.025482 12.555557 0.300000 13.264973 0.020000 15
89.740501 15.462658 0.300000 13.569263 0.020000 15
82.155754 19.264061 0.300000 13.851903 0.020000 15
75.212059 24.270597 0.300000 14.171765 0.020000 15
68.855240 27.797102 0.300000 14.596170 0.020000 15
63.035686 31.416584 0.300000 15.069735 0.020000 15
57.707996 28.923975 0.300000 15.556508 0.020000 15
52.830593 23.428669 0.300000 15.979129 0.020000 15
48.365425 15.728065 0.300000 16.164803 0.020000 15
44.277641 14.807070 0.300000 15.761821 0.020000 15
40.535355 28.178751 0.300000 16.326639 0.020000 15
37.109364 13.722194 0.300000 16.573086 0.020000 15
33.972931 27.250937 0.300000 16.746815 0.020000 15
31.101583 24.760664 0.300000 17.349026 0.020000 15
28.472919 17.863535 0.300000 17.792484 0.020000 15
26.066427 16.318243 0.300000 18.067862 0.020000 15
23.863327 14.469499 0.300000 18.466774 0.020000 15
21.846432 12.368742 0.300000 18.953648 0.020000 15
20.000000 10.212019 0.300000 19.578814 0.020000 15
