  -stride 16 
  -asq-channel     "H2:LSC-AS_Q" 
  -darm-channel    "H2:LSC-DARM_CTRL" 
  -darmerr-channel "H2:LSC-DARM_ERR" 
  -exc-channel     "H2:LSC-DARM_CTRL_EXC_DAQ" 
  -cal-line-freq 407.3 
  -olg-re      -0.44761314397906 
  -olg-im      -0.09999284928620 
  -servo-re    -0.14346135865327 
  -servo-im     0.22204243370711 
  -whitener-re  0.00987795632736 
  -whitener-im -0.00156482799222 
  -filters-file S5H2Filters.txt 
  -wings 16 
